
{
  "header": {
    "reportVersion": 1,
    "event": "Allocation failed - JavaScript heap out of memory",
    "trigger": "FatalError",
    "filename": "report.20200506.021636.79832.0.001.json",
    "dumpEventTime": "2020-05-06T02:16:36Z",
    "dumpEventTimeStamp": "1588706196965",
    "processId": 79832,
    "cwd": "/Users/propaganda/Documents/Works/pentor/sportbook/sportbook-client-api",
    "commandLine": [
      "node",
      "bin/m2m",
      "--s=2020-04-27T00:00:00",
      "--e=2020-04-27T00:05:00",
      "--dbName=ambbet"
    ],
    "nodejsVersion": "v12.13.0",
    "wordSize": 64,
    "arch": "x64",
    "platform": "darwin",
    "componentVersions": {
      "node": "12.13.0",
      "v8": "7.7.299.13-node.12",
      "uv": "1.32.0",
      "zlib": "1.2.11",
      "brotli": "1.0.7",
      "ares": "1.15.0",
      "modules": "72",
      "nghttp2": "1.39.2",
      "napi": "5",
      "llhttp": "1.1.4",
      "http_parser": "2.8.0",
      "openssl": "1.1.1d",
      "cldr": "35.1",
      "icu": "64.2",
      "tz": "2019a",
      "unicode": "12.1"
    },
    "release": {
      "name": "node",
      "lts": "Erbium",
      "headersUrl": "https://nodejs.org/download/release/v12.13.0/node-v12.13.0-headers.tar.gz",
      "sourceUrl": "https://nodejs.org/download/release/v12.13.0/node-v12.13.0.tar.gz"
    },
    "osName": "Darwin",
    "osRelease": "19.2.0",
    "osVersion": "Darwin Kernel Version 19.2.0: Sat Nov  9 03:47:04 PST 2019; root:xnu-6153.61.1~20/RELEASE_X86_64",
    "osMachine": "x86_64",
    "cpus": [
      {
        "model": "Intel(R) Core(TM) i9-9880H CPU @ 2.30GHz",
        "speed": 2300,
        "user": 18581490,
        "nice": 0,
        "sys": 16537960,
        "idle": 141278500,
        "irq": 0
      },
      {
        "model": "Intel(R) Core(TM) i9-9880H CPU @ 2.30GHz",
        "speed": 2300,
        "user": 500400,
        "nice": 0,
        "sys": 1039520,
        "idle": 174831360,
        "irq": 0
      },
      {
        "model": "Intel(R) Core(TM) i9-9880H CPU @ 2.30GHz",
        "speed": 2300,
        "user": 17306430,
        "nice": 0,
        "sys": 12063270,
        "idle": 147001920,
        "irq": 0
      },
      {
        "model": "Intel(R) Core(TM) i9-9880H CPU @ 2.30GHz",
        "speed": 2300,
        "user": 455580,
        "nice": 0,
        "sys": 763530,
        "idle": 175152140,
        "irq": 0
      },
      {
        "model": "Intel(R) Core(TM) i9-9880H CPU @ 2.30GHz",
        "speed": 2300,
        "user": 13545790,
        "nice": 0,
        "sys": 10288800,
        "idle": 152537010,
        "irq": 0
      },
      {
        "model": "Intel(R) Core(TM) i9-9880H CPU @ 2.30GHz",
        "speed": 2300,
        "user": 453330,
        "nice": 0,
        "sys": 641130,
        "idle": 175276780,
        "irq": 0
      },
      {
        "model": "Intel(R) Core(TM) i9-9880H CPU @ 2.30GHz",
        "speed": 2300,
        "user": 10382620,
        "nice": 0,
        "sys": 8108730,
        "idle": 157880240,
        "irq": 0
      },
      {
        "model": "Intel(R) Core(TM) i9-9880H CPU @ 2.30GHz",
        "speed": 2300,
        "user": 448230,
        "nice": 0,
        "sys": 549730,
        "idle": 175373260,
        "irq": 0
      },
      {
        "model": "Intel(R) Core(TM) i9-9880H CPU @ 2.30GHz",
        "speed": 2300,
        "user": 8838360,
        "nice": 0,
        "sys": 6936410,
        "idle": 160596790,
        "irq": 0
      },
      {
        "model": "Intel(R) Core(TM) i9-9880H CPU @ 2.30GHz",
        "speed": 2300,
        "user": 434730,
        "nice": 0,
        "sys": 479730,
        "idle": 175456740,
        "irq": 0
      },
      {
        "model": "Intel(R) Core(TM) i9-9880H CPU @ 2.30GHz",
        "speed": 2300,
        "user": 6873570,
        "nice": 0,
        "sys": 5192440,
        "idle": 164305530,
        "irq": 0
      },
      {
        "model": "Intel(R) Core(TM) i9-9880H CPU @ 2.30GHz",
        "speed": 2300,
        "user": 421170,
        "nice": 0,
        "sys": 425710,
        "idle": 175524300,
        "irq": 0
      },
      {
        "model": "Intel(R) Core(TM) i9-9880H CPU @ 2.30GHz",
        "speed": 2300,
        "user": 5479960,
        "nice": 0,
        "sys": 3950190,
        "idle": 166941380,
        "irq": 0
      },
      {
        "model": "Intel(R) Core(TM) i9-9880H CPU @ 2.30GHz",
        "speed": 2300,
        "user": 405590,
        "nice": 0,
        "sys": 384000,
        "idle": 175581560,
        "irq": 0
      },
      {
        "model": "Intel(R) Core(TM) i9-9880H CPU @ 2.30GHz",
        "speed": 2300,
        "user": 4602140,
        "nice": 0,
        "sys": 3141810,
        "idle": 168627550,
        "irq": 0
      },
      {
        "model": "Intel(R) Core(TM) i9-9880H CPU @ 2.30GHz",
        "speed": 2300,
        "user": 395640,
        "nice": 0,
        "sys": 351040,
        "idle": 175624450,
        "irq": 0
      }
    ],
    "networkInterfaces": [
      {
        "name": "lo0",
        "internal": true,
        "mac": "00:00:00:00:00:00",
        "address": "127.0.0.1",
        "netmask": "255.0.0.0",
        "family": "IPv4"
      },
      {
        "name": "lo0",
        "internal": true,
        "mac": "00:00:00:00:00:00",
        "address": "::1",
        "netmask": "ffff:ffff:ffff:ffff:ffff:ffff:ffff:ffff",
        "family": "IPv6",
        "scopeid": 0
      },
      {
        "name": "lo0",
        "internal": true,
        "mac": "00:00:00:00:00:00",
        "address": "fe80::1",
        "netmask": "ffff:ffff:ffff:ffff::",
        "family": "IPv6",
        "scopeid": 1
      },
      {
        "name": "en0",
        "internal": false,
        "mac": "f8:ff:c2:5d:d8:32",
        "address": "fe80::444:1b1b:bb6c:f257",
        "netmask": "ffff:ffff:ffff:ffff::",
        "family": "IPv6",
        "scopeid": 6
      },
      {
        "name": "en0",
        "internal": false,
        "mac": "f8:ff:c2:5d:d8:32",
        "address": "192.168.1.56",
        "netmask": "255.255.255.0",
        "family": "IPv4"
      },
      {
        "name": "awdl0",
        "internal": false,
        "mac": "f2:4c:85:42:4f:89",
        "address": "fe80::f04c:85ff:fe42:4f89",
        "netmask": "ffff:ffff:ffff:ffff::",
        "family": "IPv6",
        "scopeid": 8
      },
      {
        "name": "llw0",
        "internal": false,
        "mac": "f2:4c:85:42:4f:89",
        "address": "fe80::f04c:85ff:fe42:4f89",
        "netmask": "ffff:ffff:ffff:ffff::",
        "family": "IPv6",
        "scopeid": 9
      },
      {
        "name": "utun0",
        "internal": false,
        "mac": "00:00:00:00:00:00",
        "address": "fe80::b050:a061:7a9f:29e7",
        "netmask": "ffff:ffff:ffff:ffff::",
        "family": "IPv6",
        "scopeid": 14
      },
      {
        "name": "utun1",
        "internal": false,
        "mac": "00:00:00:00:00:00",
        "address": "fe80::60b9:6e9:4ffa:b877",
        "netmask": "ffff:ffff:ffff:ffff::",
        "family": "IPv6",
        "scopeid": 16
      },
      {
        "name": "utun2",
        "internal": false,
        "mac": "00:00:00:00:00:00",
        "address": "fe80::13d7:2197:91f0:c5d3",
        "netmask": "ffff:ffff:ffff:ffff::",
        "family": "IPv6",
        "scopeid": 17
      },
      {
        "name": "utun3",
        "internal": false,
        "mac": "00:00:00:00:00:00",
        "address": "fe80::35ce:dbe5:4adb:8d85",
        "netmask": "ffff:ffff:ffff:ffff::",
        "family": "IPv6",
        "scopeid": 18
      },
      {
        "name": "utun4",
        "internal": false,
        "mac": "00:00:00:00:00:00",
        "address": "fe80::dd20:4843:dc72:d337",
        "netmask": "ffff:ffff:ffff:ffff::",
        "family": "IPv6",
        "scopeid": 19
      },
      {
        "name": "utun5",
        "internal": false,
        "mac": "00:00:00:00:00:00",
        "address": "fe80::6aed:d2d7:cb99:cc2f",
        "netmask": "ffff:ffff:ffff:ffff::",
        "family": "IPv6",
        "scopeid": 20
      },
      {
        "name": "en5",
        "internal": false,
        "mac": "ac:de:48:00:11:22",
        "address": "fe80::aede:48ff:fe00:1122",
        "netmask": "ffff:ffff:ffff:ffff::",
        "family": "IPv6",
        "scopeid": 4
      },
      {
        "name": "utun6",
        "internal": false,
        "mac": "00:00:00:00:00:00",
        "address": "fe80::6cf4:8653:823e:6136",
        "netmask": "ffff:ffff:ffff:ffff::",
        "family": "IPv6",
        "scopeid": 21
      },
      {
        "name": "utun7",
        "internal": false,
        "mac": "00:00:00:00:00:00",
        "address": "fe80::43e9:abb7:d72d:6593",
        "netmask": "ffff:ffff:ffff:ffff::",
        "family": "IPv6",
        "scopeid": 22
      }
    ],
    "host": "MacBook-Pro-2.local"
  },
  "javascriptStack": {
    "message": "No stack.",
    "stack": [
      "Unavailable."
    ]
  },
  "nativeStack": [
    {
      "pc": "0x000000010014da5c",
      "symbol": "report::TriggerNodeReport(v8::Isolate*, node::Environment*, char const*, char const*, std::__1::basic_string<char, std::__1::char_traits<char>, std::__1::allocator<char> > const&, v8::Local<v8::String>) [/Users/propaganda/.nvm/versions/node/v12.13.0/bin/node]"
    },
    {
      "pc": "0x000000010007e8a3",
      "symbol": "node::OnFatalError(char const*, char const*) [/Users/propaganda/.nvm/versions/node/v12.13.0/bin/node]"
    },
    {
      "pc": "0x0000000100176267",
      "symbol": "v8::Utils::ReportOOMFailure(v8::internal::Isolate*, char const*, bool) [/Users/propaganda/.nvm/versions/node/v12.13.0/bin/node]"
    },
    {
      "pc": "0x0000000100176203",
      "symbol": "v8::internal::V8::FatalProcessOutOfMemory(v8::internal::Isolate*, char const*, bool) [/Users/propaganda/.nvm/versions/node/v12.13.0/bin/node]"
    },
    {
      "pc": "0x00000001002fa2b5",
      "symbol": "v8::internal::Heap::FatalProcessOutOfMemory(char const*) [/Users/propaganda/.nvm/versions/node/v12.13.0/bin/node]"
    },
    {
      "pc": "0x00000001002fb984",
      "symbol": "v8::internal::Heap::RecomputeLimits(v8::internal::GarbageCollector) [/Users/propaganda/.nvm/versions/node/v12.13.0/bin/node]"
    },
    {
      "pc": "0x00000001002f8857",
      "symbol": "v8::internal::Heap::PerformGarbageCollection(v8::internal::GarbageCollector, v8::GCCallbackFlags) [/Users/propaganda/.nvm/versions/node/v12.13.0/bin/node]"
    },
    {
      "pc": "0x00000001002f683d",
      "symbol": "v8::internal::Heap::CollectGarbage(v8::internal::AllocationSpace, v8::internal::GarbageCollectionReason, v8::GCCallbackFlags) [/Users/propaganda/.nvm/versions/node/v12.13.0/bin/node]"
    },
    {
      "pc": "0x0000000100301f54",
      "symbol": "v8::internal::Heap::AllocateRawWithLightRetry(int, v8::internal::AllocationType, v8::internal::AllocationAlignment) [/Users/propaganda/.nvm/versions/node/v12.13.0/bin/node]"
    },
    {
      "pc": "0x0000000100301fcf",
      "symbol": "v8::internal::Heap::AllocateRawWithRetryOrFail(int, v8::internal::AllocationType, v8::internal::AllocationAlignment) [/Users/propaganda/.nvm/versions/node/v12.13.0/bin/node]"
    },
    {
      "pc": "0x00000001002cebc7",
      "symbol": "v8::internal::Factory::NewFillerObject(int, bool, v8::internal::AllocationType) [/Users/propaganda/.nvm/versions/node/v12.13.0/bin/node]"
    },
    {
      "pc": "0x00000001005f7725",
      "symbol": "v8::internal::Runtime_AllocateInYoungGeneration(int, unsigned long*, v8::internal::Isolate*) [/Users/propaganda/.nvm/versions/node/v12.13.0/bin/node]"
    },
    {
      "pc": "0x000000010092fbd9",
      "symbol": "Builtins_CEntry_Return1_DontSaveFPRegs_ArgvOnStack_NoBuiltinExit [/Users/propaganda/.nvm/versions/node/v12.13.0/bin/node]"
    }
  ],
  "javascriptHeap": {
    "totalMemory": 2151444480,
    "totalCommittedMemory": 2150004624,
    "usedMemory": 2127587200,
    "availableMemory": 48525360,
    "memoryLimit": 2197815296,
    "heapSpaces": {
      "read_only_space": {
        "memorySize": 262144,
        "committedMemory": 32568,
        "capacity": 261872,
        "used": 32296,
        "available": 229576
      },
      "new_space": {
        "memorySize": 2097152,
        "committedMemory": 1227232,
        "capacity": 1047488,
        "used": 177808,
        "available": 869680
      },
      "old_space": {
        "memorySize": 2143399936,
        "committedMemory": 2143268680,
        "capacity": 2122590992,
        "used": 2122583192,
        "available": 7800
      },
      "code_space": {
        "memorySize": 1212416,
        "committedMemory": 1074656,
        "capacity": 884032,
        "used": 884032,
        "available": 0
      },
      "map_space": {
        "memorySize": 1314816,
        "committedMemory": 1243472,
        "capacity": 839680,
        "used": 839680,
        "available": 0
      },
      "large_object_space": {
        "memorySize": 3108864,
        "committedMemory": 3108864,
        "capacity": 3066640,
        "used": 3066640,
        "available": 0
      },
      "code_large_object_space": {
        "memorySize": 49152,
        "committedMemory": 49152,
        "capacity": 3552,
        "used": 3552,
        "available": 0
      },
      "new_large_object_space": {
        "memorySize": 0,
        "committedMemory": 0,
        "capacity": 1047488,
        "used": 0,
        "available": 1047488
      }
    }
  },
  "resourceUsage": {
    "userCpuSeconds": 253.677,
    "kernelCpuSeconds": 5.90196,
    "cpuConsumptionPercent": 120.176,
    "maxRss": 2354866814976,
    "pageFaults": {
      "IORequired": 32,
      "IONotRequired": 1973087
    },
    "fsActivity": {
      "reads": 0,
      "writes": 0
    }
  },
  "libuv": [
  ],
  "environmentVariables": {
    "SECURITYSESSIONID": "186a6",
    "USER": "propaganda",
    "COMMAND_MODE": "unix2003",
    "PATH": "/Users/propaganda/.serverless/bin:/Users/propaganda/.gem/ruby/2.3.0/bin:/Users/propaganda/.nvm/versions/node/v12.13.0/bin:/Users/propaganda/anaconda3/bin:/Users/propaganda/.rvm/gems/ruby-2.3.3/bin:/Users/propaganda/.rvm/gems/ruby-2.3.3@global/bin:/Users/propaganda/.rvm/rubies/ruby-2.3.3/bin:/Users/propaganda/.serverless/bin:/Users/propaganda/.gem/ruby/2.6.0/bin:/Users/propaganda/.nvm/versions/node/v12.13.0/bin:/Users/propaganda/anaconda3/bin:/usr/local/bin:/usr/bin:/bin:/usr/sbin:/sbin:/Applications/VMware Fusion.app/Contents/Public:/usr/local/share/dotnet:~/.dotnet/tools:/Library/Apple/usr/bin:/Library/Frameworks/Mono.framework/Versions/Current/Commands:/Users/propaganda/.rvm/gems/ruby-2.3.3/bin:/Users/propaganda/.rvm/gems/ruby-2.3.3@global/bin:/Users/propaganda/.rvm/rubies/ruby-2.3.3/bin:/Users/propaganda/.serverless/bin:/Users/propaganda/anaconda3/condabin:/Users/propaganda/.gem/ruby/2.6.0/bin:/Users/propaganda/.nvm/versions/node/v12.13.0/bin:/Users/propaganda/anaconda3/bin:/Users/propaganda/.rvm/bin:/Applications/Visual Studio Code.app/Contents/Resources/app/bin:/Users/propaganda/.rvm/bin:/Applications/Visual Studio Code.app/Contents/Resources/app/bin:/Users/propaganda/.rvm/bin:/Applications/Visual Studio Code.app/Contents/Resources/app/bin",
    "HOME": "/Users/propaganda",
    "SHELL": "/bin/zsh",
    "LaunchInstanceID": "531AEBCF-03E2-4C94-9604-96CCFB48FFE0",
    "__CF_USER_TEXT_ENCODING": "0x1F5:0x0:0x0",
    "XPC_SERVICE_NAME": "0",
    "SSH_AUTH_SOCK": "/private/tmp/com.apple.launchd.eeHD6k0ti5/Listeners",
    "XPC_FLAGS": "0x0",
    "LOGNAME": "propaganda",
    "TMPDIR": "/var/folders/dy/mn4m89rs3992grnck2qrtyxw0000gn/T/",
    "CONDA_EXE": "/Users/propaganda/anaconda3/bin/conda",
    "CONDA_SHLVL": "0",
    "GEM_HOME": "/Users/propaganda/.rvm/gems/ruby-2.3.3",
    "GEM_PATH": "/Users/propaganda/.rvm/gems/ruby-2.3.3:/Users/propaganda/.rvm/gems/ruby-2.3.3@global",
    "IRBRC": "/Users/propaganda/.rvm/rubies/ruby-2.3.3/.irbrc",
    "JAVA_HOME": "/Library/Java/JavaVirtualMachines/jdk-11.0.6.jdk/Contents/Home",
    "LESS": "-R",
    "LSCOLORS": "Gxfxcxdxbxegedabagacad",
    "MGDB_NAME": "sportbook88",
    "MGDB_PASS": "0974499156",
    "MGDB_USER": "staff_win",
    "MY_RUBY_HOME": "/Users/propaganda/.rvm/rubies/ruby-2.3.3",
    "NVM_BIN": "/Users/propaganda/.nvm/versions/node/v12.13.0/bin",
    "NVM_CD_FLAGS": "-q",
    "NVM_DIR": "/Users/propaganda/.nvm",
    "OLDPWD": "/Users/propaganda/Documents/Works/pentor/sportbook/sportbook-client-api",
    "PAGER": "less",
    "PORT": "8002",
    "PWD": "/Users/propaganda/Documents/Works/pentor/sportbook/sportbook-client-api",
    "RUBY_VERSION": "ruby-2.3.3",
    "SHLVL": "1",
    "ZSH": "/Users/propaganda/.oh-my-zsh",
    "rvm_bin_path": "/Users/propaganda/.rvm/bin",
    "rvm_path": "/Users/propaganda/.rvm",
    "rvm_prefix": "/Users/propaganda",
    "rvm_version": "1.29.9 (latest)",
    "TERM_PROGRAM": "vscode",
    "TERM_PROGRAM_VERSION": "1.44.2",
    "LANG": "en_US.UTF-8",
    "COLORTERM": "truecolor",
    "TERM": "xterm-256color",
    "LC_CTYPE": "en_US.UTF-8",
    "_CE_M": "",
    "_CE_CONDA": "",
    "_": "/Users/propaganda/.nvm/versions/node/v12.13.0/bin/node"
  },
  "userLimits": {
    "core_file_size_blocks": {
      "soft": 0,
      "hard": "unlimited"
    },
    "data_seg_size_kbytes": {
      "soft": "unlimited",
      "hard": "unlimited"
    },
    "file_size_blocks": {
      "soft": "unlimited",
      "hard": "unlimited"
    },
    "max_locked_memory_bytes": {
      "soft": "unlimited",
      "hard": "unlimited"
    },
    "max_memory_size_kbytes": {
      "soft": "unlimited",
      "hard": "unlimited"
    },
    "open_files": {
      "soft": 24576,
      "hard": "unlimited"
    },
    "stack_size_bytes": {
      "soft": 8388608,
      "hard": 67104768
    },
    "cpu_time_seconds": {
      "soft": "unlimited",
      "hard": "unlimited"
    },
    "max_user_processes": {
      "soft": 2784,
      "hard": 4176
    },
    "virtual_memory_kbytes": {
      "soft": "unlimited",
      "hard": "unlimited"
    }
  },
  "sharedObjects": [
    "/Users/propaganda/.nvm/versions/node/v12.13.0/bin/node",
    "/System/Library/Frameworks/CoreFoundation.framework/Versions/A/CoreFoundation",
    "/usr/lib/libSystem.B.dylib",
    "/usr/lib/libc++.1.dylib",
    "/usr/lib/libobjc.A.dylib",
    "/usr/lib/libfakelink.dylib",
    "/usr/lib/libDiagnosticMessagesClient.dylib",
    "/usr/lib/libicucore.A.dylib",
    "/usr/lib/libz.1.dylib",
    "/usr/lib/libc++abi.dylib",
    "/usr/lib/system/libcache.dylib",
    "/usr/lib/system/libcommonCrypto.dylib",
    "/usr/lib/system/libcompiler_rt.dylib",
    "/usr/lib/system/libcopyfile.dylib",
    "/usr/lib/system/libcorecrypto.dylib",
    "/usr/lib/system/libdispatch.dylib",
    "/usr/lib/system/libdyld.dylib",
    "/usr/lib/system/libkeymgr.dylib",
    "/usr/lib/system/liblaunch.dylib",
    "/usr/lib/system/libmacho.dylib",
    "/usr/lib/system/libquarantine.dylib",
    "/usr/lib/system/libremovefile.dylib",
    "/usr/lib/system/libsystem_asl.dylib",
    "/usr/lib/system/libsystem_blocks.dylib",
    "/usr/lib/system/libsystem_c.dylib",
    "/usr/lib/system/libsystem_configuration.dylib",
    "/usr/lib/system/libsystem_coreservices.dylib",
    "/usr/lib/system/libsystem_darwin.dylib",
    "/usr/lib/system/libsystem_dnssd.dylib",
    "/usr/lib/system/libsystem_featureflags.dylib",
    "/usr/lib/system/libsystem_info.dylib",
    "/usr/lib/system/libsystem_m.dylib",
    "/usr/lib/system/libsystem_malloc.dylib",
    "/usr/lib/system/libsystem_networkextension.dylib",
    "/usr/lib/system/libsystem_notify.dylib",
    "/usr/lib/system/libsystem_sandbox.dylib",
    "/usr/lib/system/libsystem_secinit.dylib",
    "/usr/lib/system/libsystem_kernel.dylib",
    "/usr/lib/system/libsystem_platform.dylib",
    "/usr/lib/system/libsystem_pthread.dylib",
    "/usr/lib/system/libsystem_symptoms.dylib",
    "/usr/lib/system/libsystem_trace.dylib",
    "/usr/lib/system/libunwind.dylib",
    "/usr/lib/system/libxpc.dylib",
    "/usr/lib/libnetwork.dylib",
    "/usr/lib/libpcap.A.dylib",
    "/System/Library/Frameworks/IOKit.framework/Versions/A/IOKit",
    "/usr/lib/libcoretls.dylib",
    "/usr/lib/libcoretls_cfhelpers.dylib",
    "/System/Library/Frameworks/Security.framework/Versions/A/Security",
    "/usr/lib/libapple_nghttp2.dylib",
    "/usr/lib/libenergytrace.dylib",
    "/usr/lib/libbsm.0.dylib",
    "/usr/lib/system/libkxld.dylib",
    "/System/Library/Frameworks/Foundation.framework/Versions/C/Foundation",
    "/System/Library/PrivateFrameworks/AppleFSCompression.framework/Versions/A/AppleFSCompression",
    "/usr/lib/libpam.2.dylib",
    "/usr/lib/libsqlite3.dylib",
    "/usr/lib/libxar.1.dylib",
    "/usr/lib/libauto.dylib",
    "/usr/lib/libcompression.dylib",
    "/System/Library/Frameworks/DiskArbitration.framework/Versions/A/DiskArbitration",
    "/usr/lib/libarchive.2.dylib",
    "/usr/lib/libxml2.2.dylib",
    "/System/Library/Frameworks/SystemConfiguration.framework/Versions/A/SystemConfiguration",
    "/System/Library/Frameworks/CoreServices.framework/Versions/A/CoreServices",
    "/usr/lib/liblangid.dylib",
    "/usr/lib/libCRFSuite.dylib",
    "/System/Library/Frameworks/CFNetwork.framework/Versions/A/CFNetwork",
    "/usr/lib/liblzma.5.dylib",
    "/usr/lib/libbz2.1.0.dylib",
    "/usr/lib/libiconv.2.dylib",
    "/usr/lib/libcharset.1.dylib",
    "/System/Library/Frameworks/CoreServices.framework/Versions/A/Frameworks/FSEvents.framework/Versions/A/FSEvents",
    "/System/Library/Frameworks/CoreServices.framework/Versions/A/Frameworks/CarbonCore.framework/Versions/A/CarbonCore",
    "/System/Library/Frameworks/CoreServices.framework/Versions/A/Frameworks/Metadata.framework/Versions/A/Metadata",
    "/System/Library/Frameworks/CoreServices.framework/Versions/A/Frameworks/OSServices.framework/Versions/A/OSServices",
    "/System/Library/Frameworks/CoreServices.framework/Versions/A/Frameworks/SearchKit.framework/Versions/A/SearchKit",
    "/System/Library/Frameworks/CoreServices.framework/Versions/A/Frameworks/AE.framework/Versions/A/AE",
    "/System/Library/Frameworks/CoreServices.framework/Versions/A/Frameworks/LaunchServices.framework/Versions/A/LaunchServices",
    "/System/Library/Frameworks/CoreServices.framework/Versions/A/Frameworks/DictionaryServices.framework/Versions/A/DictionaryServices",
    "/System/Library/Frameworks/CoreServices.framework/Versions/A/Frameworks/SharedFileList.framework/Versions/A/SharedFileList",
    "/System/Library/Frameworks/NetFS.framework/Versions/A/NetFS",
    "/System/Library/PrivateFrameworks/NetAuth.framework/Versions/A/NetAuth",
    "/System/Library/PrivateFrameworks/login.framework/Versions/A/Frameworks/loginsupport.framework/Versions/A/loginsupport",
    "/System/Library/PrivateFrameworks/TCC.framework/Versions/A/TCC",
    "/System/Library/PrivateFrameworks/CoreNLP.framework/Versions/A/CoreNLP",
    "/System/Library/PrivateFrameworks/MetadataUtilities.framework/Versions/A/MetadataUtilities",
    "/usr/lib/libmecabra.dylib",
    "/System/Library/Frameworks/Accelerate.framework/Versions/A/Accelerate",
    "/usr/lib/libmecab.dylib",
    "/usr/lib/libgermantok.dylib",
    "/usr/lib/libThaiTokenizer.dylib",
    "/usr/lib/libChineseTokenizer.dylib",
    "/System/Library/Frameworks/Accelerate.framework/Versions/A/Frameworks/vImage.framework/Versions/A/vImage",
    "/System/Library/Frameworks/Accelerate.framework/Versions/A/Frameworks/vecLib.framework/Versions/A/vecLib",
    "/System/Library/Frameworks/Accelerate.framework/Versions/A/Frameworks/vecLib.framework/Versions/A/libvMisc.dylib",
    "/System/Library/Frameworks/Accelerate.framework/Versions/A/Frameworks/vecLib.framework/Versions/A/libvDSP.dylib",
    "/System/Library/Frameworks/Accelerate.framework/Versions/A/Frameworks/vecLib.framework/Versions/A/libBLAS.dylib",
    "/System/Library/Frameworks/Accelerate.framework/Versions/A/Frameworks/vecLib.framework/Versions/A/libLAPACK.dylib",
    "/System/Library/Frameworks/Accelerate.framework/Versions/A/Frameworks/vecLib.framework/Versions/A/libLinearAlgebra.dylib",
    "/System/Library/Frameworks/Accelerate.framework/Versions/A/Frameworks/vecLib.framework/Versions/A/libSparseBLAS.dylib",
    "/System/Library/Frameworks/Accelerate.framework/Versions/A/Frameworks/vecLib.framework/Versions/A/libQuadrature.dylib",
    "/System/Library/Frameworks/Accelerate.framework/Versions/A/Frameworks/vecLib.framework/Versions/A/libBNNS.dylib",
    "/System/Library/Frameworks/Accelerate.framework/Versions/A/Frameworks/vecLib.framework/Versions/A/libSparse.dylib",
    "/System/Library/PrivateFrameworks/LanguageModeling.framework/Versions/A/LanguageModeling",
    "/System/Library/PrivateFrameworks/CoreEmoji.framework/Versions/A/CoreEmoji",
    "/System/Library/PrivateFrameworks/LinguisticData.framework/Versions/A/LinguisticData",
    "/System/Library/PrivateFrameworks/Lexicon.framework/Versions/A/Lexicon",
    "/usr/lib/libcmph.dylib",
    "/System/Library/Frameworks/OpenDirectory.framework/Versions/A/Frameworks/CFOpenDirectory.framework/Versions/A/CFOpenDirectory",
    "/System/Library/Frameworks/OpenDirectory.framework/Versions/A/OpenDirectory",
    "/System/Library/PrivateFrameworks/APFS.framework/Versions/A/APFS",
    "/System/Library/Frameworks/SecurityFoundation.framework/Versions/A/SecurityFoundation",
    "/usr/lib/libutil.dylib",
    "/System/Library/PrivateFrameworks/CoreServicesStore.framework/Versions/A/CoreServicesStore",
    "/System/Library/Frameworks/ServiceManagement.framework/Versions/A/ServiceManagement",
    "/System/Library/PrivateFrameworks/BackgroundTaskManagement.framework/Versions/A/BackgroundTaskManagement",
    "/usr/lib/libxslt.1.dylib",
    "/usr/lib/libusrtcp.dylib"
  ]
}